# Ковариационный анализ

Вообще-то мы это уже сделали, просто не заметили.

Начнём в этот раз с данных1.

## # A tibble: 654 × 6
##       ID   Age   FEV Height Sex    Smoker
##    <dbl> <dbl> <dbl>  <dbl> <chr>  <chr> 
##  1   301     9  1.71   57   Female Non   
##  2   451     8  1.72   67.5 Female Non   
##  3   501     7  1.72   54.5 Female Non   
##  4   642     9  1.56   53   Male   Non   
##  5   901     9  1.90   57   Male   Non   
##  6  1701     8  2.34   61   Female Non   
##  7  1752     6  1.92   58   Female Non   
##  8  1753     6  1.42   56   Female Non   
##  9  1901     8  1.99   58.5 Female Non   
## 10  1951     9  1.94   60   Female Non   
## # … with 644 more rows
…
